# WaveFront *.mtl file (generated by CINEMA 4D)

newmtl Mat.1
Ka 1 1 1
Kd 0.80000001192093 0.80000001192093 0.80000001192093
map_Kd https://cdn.glitch.com/bc66fcc1-f39e-440f-ac32-680b47c09057%2FWoodSeemles1.jpg?1534310474009
Ks 1 1 1
Ns 50
illum 7

newmtl Mat
Ka 1 1 1
Kd 0.80000001192093 0.80000001192093 0.80000001192093
map_Kd https://cdn.glitch.com/bc66fcc1-f39e-440f-ac32-680b47c09057%2FWoodSeemles.jpg?1534310474503
Ks 1 1 1
Ns 50
illum 7

